^sep(Audio Software)
^sep()
Audio Plugins,^root(plugins),applications-multimedia
Audio Production,^root(audio-production),applications-multimedia
Audio Tools,^root(audio-tools),applications-multimedia
Hardware Configuration,^root(hardware-configuration),applications-multimedia
^sep()
^sep()
^sep()
^sep()
^sep()
^sep()
^sep()
^sep()
^sep()
^sep()
^sep()
^sep()
^sep()
^sep()
^sep()
^sep()
^sep()
^sep()
^sep()
^sep()
^sep()
Menu Settings,^root(menu_settings),preferences-system-symbolic

Audio Plugins,^tag(plugins)
^sep()
<b>Back to Menu</b>,^back(),jgmenu
^sep()
Calf Plugin Pack,calfjackhost,calf
Dragonfly Reverb,DragonflyReverb,applications-multimedia
Guitarix,guitarix,guitarix
Helm,helm-synth,helm-synth
Qtractor,qtractor,qtractor
Wolf Shaper,wolf-shaper,applications-multimedia

Audio Production,^tag(audio-production)
^sep()
<b>Back to Menu</b>,^back(),jgmenu
^sep()
Ardour,ardour6,ardour
Hydrogen,hydrogen,hydrogen
SetBfree,setBfreeUI,setBfree
Yoshimi,yoshimi,yoshimi
ZynAddSubFX Alsa,zynaddsubfx -I alsa -O alsa,zynaddsubfx
ZynAddSubFX Jack,zynaddsubfx -I jack -O jack,zynaddsubfx
ZynAddSubFX OSS,zynaddsubfx -I OSS -O OSS,zynaddsubfx

Audio Tools,^tag(audio-tools)
^sep()
<b>Back to Menu</b>,^back(),jgmenu
^sep()
AJ-Snapshot-UI,aj-snapshot,ffado
Carla,carla,carla
Carla Control,carla-control,carla-control
Patchmatrix,patchmatrix,patchmatrix
QasConfig,qasconfig,qasconfig
QasHctl,qashctl,qashctl
QasMixer,qasmixer,qasmixer

Hardware Configuration,^tag(hardware-configuration)
^sep()
<b>Back to Menu</b>,^back(),jgmenu
^sep()
Jack GUI,qjackctl,qjackctl
Cadence,cadence,cadence
Catia,catia,catia
Catarina,catarina,catarina
FFADO Mixer,ffado-mixer,ffado
QmidiCtl,qmidictl,qmidictl
QmidiNet,qmidinet,qmidinet

Menu Settings,^tag(menu_settings)
^sep()
<b>Back to Menu</b>,^back(),jgmenu
^sep()
Stay Alive,^root(stay_alive),system-run-symbolic
Change menu font,scripts-box.sh --mmenu-font-change,gnote-panel
Key bindings,^root(bindings),input-keyboard-virtual-on

Stay Alive,^tag(stay_alive)
^sep()
<b>Back to Menu</b>,^back(),jgmenu
^sep()
Enable,scripts-box.sh --stay-alive-on
Disable,scripts-box.sh --stay-alive-off

Key bindings,^tag(bindings)
^sep()
<b>Back to Menu</b>,^back(),jgmenu
^sep()
<b>Previous</b> | Up,
<b>Next</b> | Down,
<b>Left</b> | Parent,
<b>Right</b> | Sub menu,
<b>PgUp</b> | Scroll up,
<b>PgDown</b> | Scroll down,
<b>Home</b> | Select first,
<b>End</b> | Last item,
<b>Enter</b> | Select or open a submenu,
<b>Backspace</b> | Return to parent menu,
<b>F10</b> | exit,
