#define max_hover_width 10
#define max_hover_height 10
static unsigned char max_hover_bits[] = {
   0x80, 0x03, 0x00, 0x03, 0x80, 0x02, 0x40, 0x00, 0x00, 0x00, 0x00, 0x00,
   0x08, 0x00, 0x05, 0x00, 0x03, 0x00, 0x07, 0x00 };
