@icon,,10,10,38,38,0,left,top,,,/usr/share/icons/RecBox/light-menu-icon.png
@rect,,8,8,514,42,0,left,top,#9594a1 100,#bfbfbf 0,content
@search,,48,8,460,42,0,left,top,#9594a1 100,#222222 100,Type to search...

^sep(Applications)
^sep()

